<?xml version="1.0" encoding="utf-8"?>
<svg version="1.1"
     baseProfile="full"
     xmlns="http://www.w3.org/2000/svg"
     xmlns:xlink="http://www.w3.org/1999/xlink"
     xmlns:ev="http://www.w3.org/2001/xml-events"
     width="20" height="14"     
>

  <rect x="0" y="0" width="20" height="2" fill="#D6D6D6" />
  <rect x="0" y="6" width="20" height="2" fill="#D6D6D6" />
  <rect x="0" y="12" width="20" height="2" fill="#D6D6D6" />

</svg>
